FORT                          Consolidation                                     ST0000000102                  ALABANG                       1003                          5                        4806523174992       0         0                                                 0         0                                                 00                  1    NONE                None                                              PC                  PAGBIBIGAY                                                                                            /  /                                          52.5        75          3    4806523174992                 0           0                                                                                
FORT                          Consolidation                                     ST0000000102                  ALABANG                       1008                          2                        9781434764812       0         0                                                 0         0                                                 00                  1    NONE                None                                              PC                  PARENTING BEYOND YOUR                                                                                 /  /                                          287.5       575         3    3000040017690                 0           0                                                                                
FORT                          Consolidation                                     ST0000000102                  ALABANG                       1011                          2                        9789380495170       0         0                                                 0         0                                                 00                  1    NONE                None                                              PC                  PARTNERS FOR LIFE                                                                                     /  /                                          85          85          3    9789380495170                 0           0                                                                                
FORT                          Consolidation                                     ST0000000102                  ALABANG                       1015                          1                        9789715116077       0         0                                                 0         0                                                 00                  1    NONE                None                                              PC                  PASSION AND PURITY CH                                                                                 /  /                                          137.5       250         3    3000020000995                 0           0                                                                                
